<?xml version="1.0" encoding="utf-8"?>
<!-- Generator: Adobe Illustrator 19.0.0, SVG Export Plug-In . SVG Version: 6.00 Build 0)  -->
<svg version="1.1" id="Layer_1" xmlns="http://www.w3.org/2000/svg" xmlns:xlink="http://www.w3.org/1999/xlink" x="0px" y="0px"
	 viewBox="-199 198 100 105" style="enable-background:new -199 198 100 105;" xml:space="preserve">
<style type="text/css">
	.st0{fill:#CC5500;}
</style>
<g>
	<g>
		<g>
			<path class="st0" d="M-113.9,241.6h1.8c-0.9-10.9-7-22.1-18.7-28.1c-1.2-0.6-2.5-1.2-3.8-1.7c-2.6-1-5.5-1.7-8.6-2.2
				c-2-0.3-4.2-0.4-6.5-0.4c-0.1,0-0.2,0-0.3,0c-17,0-34.7,10-37.4,32.4h3.1v8.8v11.7h-5.5c-2.6,0-4.8-2-4.8-4.5v-11.4
				c0-2.1,1.5-3.8,3.5-4.4c2.7-25.2,22.5-36.5,41.5-36.3c2.3,0,4.7,0.2,7,0.6c3.2,0.5,6.3,1.3,9.3,2.5c1.4,0.6,2.8,1.2,4.2,1.9
				c11.2,5.6,19.9,16.1,20.9,31.2c2.6,0,4.8,2,4.8,4.5v11.4c0,2.4-2,4.4-4.5,4.5c-1.2,7.4-6.8,13.5-14.3,16.4
				c-0.7,0.3-1.3,0.5-2,0.7s-1.3,0.4-2.1,0.5c0.1-0.1,0.1-0.3,0.1-0.4c-0.1,0.2-0.2,0.3-0.3,0.5c0.1,0,0.1,0,0.2,0
				c-0.3,1.1-1,2-1.8,2.5c-0.4,0.2-0.8,0.3-1.2,0.3h-10.3c-1.8,0-3.3-2.2-3.3-4.9c0-2.7,1.5-4.9,3.3-4.9h10.3c1.3,0,2.6,1.3,3,3.1
				c0.6-0.1,1.2-0.3,1.8-0.5c0.2-0.1,0.4-0.1,0.6-0.2c0.4-0.2,0.8-0.3,1.1-0.4c0,0,0,0,0.1,0c0.7-0.3,1.4-0.6,2-1
				c4.6-2.6,7.9-6.7,8.9-11.5h-2L-113.9,241.6L-113.9,241.6z"/>
			<path class="st0" d="M-117.6,251.4c0,7.1-2.1,14.9-5.5,22c-0.2-0.3-0.3-0.7-0.5-1c-1.3-2.1-3.3-3.6-5.7-3.6h-10.3
				c-3.9,0-7,3.9-7,8.6c0,4.8,3.1,8.6,7,8.6h8.3c-1.6,2-3.4,3.7-5.2,5.2c-7,6.1-19.6,5.6-26.6-0.2c-10-9-17.6-26.6-17.6-40.8
				c0-20.1,16.5-36.4,32-36.4C-133.3,214-117.6,231.4-117.6,251.4z"/>
			<path class="st0" d="M-126.6,279.7c0.1-0.2,0.2-0.3,0.3-0.5c0,0.1-0.1,0.3-0.1,0.4C-126.4,279.6-126.5,279.6-126.6,279.7z"/>
		</g>
	</g>
</g>
</svg>
