<?xml version="1.0" encoding="utf-8"?>
<!-- Generator: Adobe Illustrator 19.0.0, SVG Export Plug-In . SVG Version: 6.00 Build 0)  -->
<svg version="1.1" id="Layer_1" xmlns="http://www.w3.org/2000/svg" xmlns:xlink="http://www.w3.org/1999/xlink" x="0px" y="0px"
	 viewBox="-199 204 100 94" style="enable-background:new -199 204 100 94;" xml:space="preserve">
<style type="text/css">
	.st0{fill:#CC5500;}
</style>
<g>
	<path class="st0" d="M-110.5,268c0,10-10,10-10,10H-133c-3.9,5.8-8.7,10-14.5,10h-15.7c-17.1,0-25.6-42.7-25.6-42.7
		c0-2.8,2.8-2.8,2.8-2.8h62.6c0,0,2.8,0,2.8,2.8c0,0-0.3,1.6-1,4.3h2.4c0,0,10,0,10,10L-110.5,268z M-119,255.2h-4
		c-1.5,5.1-3.7,11.4-6.6,17.1h9.2c2.4,0,4.3-1.9,4.3-4.3l1.4-8.5C-114.7,257.2-116.7,255.2-119,255.2z M-143,232.8
		c-4,2.9-0.6,5.3-0.6,5.3c-4,0-5.2-5.3-2.3-6.4c2.9-1.2,1.7-3.5,1.7-3.5C-139.6,230.6-143,232.8-143,232.8z M-149.6,228.3
		c-7,5.4-1,9.8-1,9.8c-7,0-9-9.8-4-12s3-6.5,3-6.5C-143.6,223.9-149.6,228.3-149.6,228.3z M-159.1,225.3c-10,7.1-1.4,12.8-1.4,12.8
		c-10,0-12.9-12.8-5.7-15.7c7.2-2.8,4.3-8.5,4.3-8.5C-150.5,219.6-159.1,225.3-159.1,225.3z"/>
</g>
</svg>
