<?xml version="1.0" encoding="utf-8"?>
<!-- Generator: Adobe Illustrator 19.0.0, SVG Export Plug-In . SVG Version: 6.00 Build 0)  -->
<svg version="1.1" id="Layer_1" xmlns="http://www.w3.org/2000/svg" xmlns:xlink="http://www.w3.org/1999/xlink" x="0px" y="0px"
	 viewBox="-237 238.2 24 24.8" style="enable-background:new -237 238.2 24 24.8;" xml:space="preserve">
<style type="text/css">
	.st0{fill:#CC5500;}
</style>
<g>
	<g>
		<path class="st0" d="M-234,261.6c0,0.3,0.2,0.5,0.5,0.5h5c0.3,0,0.5-0.2,0.5-0.5v-2.5h-6V261.6z M-234,258.1h6v-2h-6V258.1z
			 M-213.5,249.1h-7.5v-1h5.5c0.3,0,0.5-0.2,0.5-0.5v-8c0-0.3-0.2-0.5-0.5-0.5h-12c-0.3,0-0.5,0.2-0.5,0.5v8c0,0.3,0.2,0.5,0.5,0.5
			h5.5v1h-14.5c-0.3,0-0.5,0.2-0.5,0.5s0.2,0.5,0.5,0.5h0.5v11.5c0,0.3,0.2,0.5,0.5,0.5s0.5-0.2,0.5-0.5v-8.5h1v2h6v-2h13v8.5
			c0,0.3,0.2,0.5,0.5,0.5s0.5-0.2,0.5-0.5v-11.5h0.5c0.3,0,0.5-0.2,0.5-0.5S-213.2,249.1-213.5,249.1z"/>
	</g>
</g>
</svg>
