<?xml version="1.0" encoding="utf-8"?>
<!-- Generator: Adobe Illustrator 19.0.0, SVG Export Plug-In . SVG Version: 6.00 Build 0)  -->
<svg version="1.1" id="Layer_1" xmlns="http://www.w3.org/2000/svg" xmlns:xlink="http://www.w3.org/1999/xlink" x="0px" y="0px"
	 viewBox="-199 211 100 80" style="enable-background:new -199 211 100 80;" xml:space="preserve">
<style type="text/css">
	.st0{fill:#CC5500;}
</style>
<g>
	<path class="st0" d="M-153.9,266.6c-0.6-0.6-0.9-1.3-0.9-2.1c0-1.6,1.3-3,3-3c0.8,0,1.5,0.3,2.1,0.9l0,0l9.6,9.6h1.2v-35.9
		c0-1.6,1.3-3,3-3c1.7,0,3,1.3,3,3l0,0v25.7h1.2v-12.4c0-1.6,1.3-3,3-3c1.6,0,3,1.3,3,3l0,0v14.4h1.2v-14.1c0.5-0.4,1.1-0.6,1.8-0.6
		c1.6,0,3,1.3,3,3l0,0v13.6h1.2v-10.4c0.5-0.4,1.1-0.6,1.8-0.6c1.6,0,3,1.3,3,3l0,0v18.8c0,6.8-5.6,12.4-12.4,12.4
		c-3.3,0-6.4-1.3-8.8-3.6l0,0L-153.9,266.6z M-104.3,213.1h-89.5c-2.9,0-5.2,2.3-5.2,5.2l0,0v57.6c0,2.9,2.3,5.2,5.2,5.2l0,0h50.3
		l-7.9-7.9h-39.8v-52.4h84.3v52.4h-4.2v3.2c0,1.6-0.2,3.2-0.7,4.7l0,0h7.5c2.9,0,5.2-2.3,5.2-5.2l0,0v-57.6
		C-99.1,215.5-101.4,213.1-104.3,213.1L-104.3,213.1z M-130,236.2v6.6c1.9-1.7,3-4.1,3-6.6c0-4.9-4-8.9-8.9-8.9s-8.9,4-8.9,8.9
		c0,2.5,1.1,4.9,3,6.6l0,0v-6.6c0-3.3,2.6-5.9,5.9-5.9C-132.7,230.4-130,233-130,236.2L-130,236.2z"/>
</g>
</svg>
