<?xml version="1.0" encoding="utf-8"?>
<!-- Generator: Adobe Illustrator 19.0.0, SVG Export Plug-In . SVG Version: 6.00 Build 0)  -->
<svg version="1.1" id="Layer_1" xmlns="http://www.w3.org/2000/svg" xmlns:xlink="http://www.w3.org/1999/xlink" x="0px" y="0px"
	 viewBox="0 0 3000 500" style="enable-background:new 0 0 3000 500;" xml:space="preserve">
<style type="text/css">
	.st0{fill:none;}
	.st1{fill:#FFFFFF;stroke:#000000;stroke-width:4;stroke-miterlimit:10;}
	.st2{fill:none;stroke:#000000;stroke-miterlimit:10;}
	.st3{fill:none;stroke:#000000;stroke-width:2;stroke-miterlimit:10;}
	.st4{fill:#FFFFFF;stroke:#000000;stroke-width:3;stroke-miterlimit:10;}
	.st5{fill:#FFFFFF;stroke:#000000;stroke-width:2;stroke-miterlimit:10;}
	.st6{fill:none;stroke:#000000;stroke-width:4;stroke-miterlimit:10;}
	.st7{fill:none;stroke:#000000;stroke-width:6;stroke-miterlimit:10;}
</style>
<rect id="XMLID_811_" class="st0" width="3000" height="500"/>
<g id="XMLID_441_">
	<path id="XMLID_453_" class="st1" d="M904.8,202.6c0,3.3-2.7,6-6,6c-3.3,0-13.4-2.7-13.4-6s10-6,13.4-6
		C902.2,196.6,904.8,199.3,904.8,202.6z"/>
	<path id="XMLID_452_" class="st1" d="M885.9,217.4L885.9,217.4c-6.4,0-11.6-5.2-11.6-11.6v-11.1c0-1.2,1-2.2,2.2-2.2h18.6
		c1.2,0,2.2,1,2.2,2.2v11.1C897.5,212.3,892.3,217.4,885.9,217.4z"/>
	<polygon id="XMLID_451_" class="st1" points="626.7,421.6 621.5,421.6 634.3,240.8 650.5,240.8 	"/>
	<polygon id="XMLID_450_" class="st1" points="878.3,421.6 883.5,421.6 870.7,240.8 854.5,240.8 	"/>
	<rect id="XMLID_449_" x="745.4" y="302.1" class="st1" width="10.1" height="103.3"/>
	<path id="XMLID_448_" class="st1" d="M804.4,304.1H700c-16.7,0-30.2-9.5-30.2-26.2V277c0-5.2,4.2-9.5,9.5-9.5h145.7
		c5.2,0,9.5,4.2,9.5,9.5v0.9C834.5,294.6,821,304.1,804.4,304.1z"/>
	<path id="XMLID_447_" class="st1" d="M764.4,242.5h-28c-34.6,0-62-9-60.1-43.5l5.4-96.5c0.6-10.7,9.3-15.9,20.2-19.1
		c0,0,10.2-5,45.6-5s51.5,5,51.5,5c11.2,3.4,19.6,8.4,20.2,19.1l5.4,96.5C826.4,233.5,799,242.5,764.4,242.5z"/>
	<path id="XMLID_446_" class="st1" d="M839,245.3h-14.2c-4.9,0-8.8-4-8.8-8.8v-39.8c0-4.9,4-8.8,8.8-8.8h0c14.9,0,23,12.1,23,27
		v21.6C847.8,241.3,843.8,245.3,839,245.3z"/>
	<path id="XMLID_445_" class="st1" d="M662.8,245.3H677c4.9,0,8.8-4,8.8-8.8v-39.8c0-4.9-4-8.8-8.8-8.8h0c-12.7,0-23,10.3-23,23
		v25.6C654,241.3,657.9,245.3,662.8,245.3z"/>
	<path id="XMLID_444_" class="st1" d="M813.6,414.8H687.1c-0.9,0-1.6-0.7-1.6-1.6v-5.8c0-0.9,0.7-1.6,1.6-1.6h126.5
		c0.9,0,1.6,0.7,1.6,1.6v5.8C815.2,414.1,814.5,414.8,813.6,414.8z"/>
	<path id="XMLID_443_" class="st1" d="M902.8,278.8H598c-3.9,0-7.1-3.2-7.1-7.1v-39.1c0-3.9,3.2-7.1,7.1-7.1h304.8
		c3.9,0,7.1,3.2,7.1,7.1v39.1C909.8,275.7,906.7,278.8,902.8,278.8z"/>
	<path id="XMLID_442_" class="st1" d="M937.1,231.8H563.6c-1.4,0-2.5-1.1-2.5-2.5V222c0-1.4,1.1-2.5,2.5-2.5h373.5
		c1.4,0,2.5,1.1,2.5,2.5v7.3C939.7,230.6,938.5,231.8,937.1,231.8z"/>
</g>
<g id="XMLID_387_">
	<g id="XMLID_411_">
		<polygon id="XMLID_413_" class="st1" points="353.5,144.9 334.4,152.8 397.5,306.2 414.8,293.7 		"/>
		<path id="XMLID_412_" class="st1" d="M415,293.7l-17.3,12.5L250.2,412.7l12.1,16.8l143.5-103.6l2.1-1.5c8.9-6.4,12.2-18.1,8-28.3
			L415,293.7z"/>
	</g>
	<g id="XMLID_408_">
		<polygon id="XMLID_410_" class="st1" points="146.1,144.9 165.2,152.8 102,306.2 84.8,293.7 		"/>
		<path id="XMLID_409_" class="st1" d="M85,293.7l17.3,12.5l147.5,106.5l-12.1,16.8L94.1,325.9l-2.1-1.5c-8.9-6.4-12.2-18.1-8-28.3
			L85,293.7z"/>
	</g>
	<g id="XMLID_405_">
		<path id="XMLID_407_" class="st2" d="M251.3,67.7c-21.1,0-38.2,9-38.2,20c0,3.7-3.9,7.4-6.4,10.6c13.4-2.6,29.8-4.2,49.9-4.2
			c14.4,0,26.8,0.8,37.6,2.1c-2.2-2.7-4.7-5.6-4.7-8.6C289.5,76.7,272.4,67.7,251.3,67.7z"/>
		<path id="XMLID_406_" class="st1" d="M213.1,87.8c0-11.1,17.1-20,38.2-20s38.2,9,38.2,20c0,3-8.2,5-5.9,7.7c4,0.5,18.4,2,21.9,2.6
			c-2.8-3.3-5.7-6.9-5.7-10.5c0-14-21.7-25.4-48.5-25.4s-48.5,11.4-48.5,25.4c0,4.8-5.2,9.6-8.3,13.7c3.7-1.1,23.5-4.2,27.9-5.1
			C224.8,93,213.1,91.5,213.1,87.8z"/>
	</g>
	<path id="XMLID_404_" class="st1" d="M361.5,420.9H137.2c-12.8,0-23.1-8.3-23.1-21.1c0,0-4.2-55,0-72.1s21.5-30,21.5-30h229.2
		c0,0,14.3,14.6,19.8,30c5.6,15.4,0,72.1,0,72.1C384.6,412.5,374.2,420.9,361.5,420.9z"/>
	<path id="XMLID_403_" class="st1" d="M365.8,416.1c0.1,3.9-1.2,7.4-3.5,10c-2.3,2.6-51.5,11.8-112.1,11.8s-109.9-9.2-112.1-11.8
		c-2.3-2.6-3.6-6.1-3.5-10l1.2-143.7l6.6-125.7c0.9-17.1,11.3-52.6,107.9-52.6s105.4,33.8,107.9,53.5c0,0,6.6,79.7,6.6,125.2
		S365.8,416.1,365.8,416.1z"/>
	<path id="XMLID_402_" class="st1" d="M250.2,411c-33.2,0-73.9-3.6-79-8.7c-2.3-2.3-3.7-5.5-3.7-9l4-97.9c0-3.5,1.4-6.7,3.7-9
		c2.3-2.3,7.6-6.7,75-6.7s72.7,4.4,75,6.7s3.7,5.5,3.7,9l4,97.9c0,3.5-1.4,6.7-3.7,9C323.9,407.6,283.4,411,250.2,411z"/>
	<g id="XMLID_400_">
		<path id="XMLID_401_" class="st1" d="M250,346.7c93,0,78.7-51.3,78.7-51.3c0-3.5-1.4-6.7-3.7-9s-7.6-6.7-75-6.7s-72.7,4.4-75,6.7
			s-3.7,5.5-3.7,9C171.3,295.5,157,346.7,250,346.7z"/>
	</g>
	<g id="XMLID_398_">
		<path id="XMLID_399_" class="st1" d="M250.4,204.7c70.2,0,69.6-13.3,72.1-23.8l16-67c-14.7-10.6-41-18.8-88.5-18.8
			c-46.8,0-73.4,8.3-88.4,18.9l16,66.9C180,191.4,180.2,204.7,250.4,204.7z"/>
	</g>
	<path id="XMLID_397_" class="st1" d="M250.2,384.5L250.2,384.5c-2.6,0-4.7-2.1-4.7-4.7v-38.3c0-2.6,2.1-4.7,4.7-4.7h0
		c2.6,0,4.7,2.1,4.7,4.7v38.3C254.9,382.4,252.8,384.5,250.2,384.5z"/>
	<path id="XMLID_396_" class="st1" d="M256.9,374.8h-13.3c-0.9,0-1.6-0.7-1.6-1.6v-10.7c0-0.9,0.7-1.6,1.6-1.6h13.3
		c0.9,0,1.6,0.7,1.6,1.6v10.7C258.4,374.1,257.7,374.8,256.9,374.8z"/>
	<path id="XMLID_395_" class="st1" d="M211.2,249.1L211.2,249.1c-2.6,0-4.7-2.1-4.7-4.7v-57.9c0-0.9,0.7-1.6,1.6-1.6h6.2
		c0.9,0,1.6,0.7,1.6,1.6v57.9C215.9,247,213.8,249.1,211.2,249.1z"/>
	<path id="XMLID_394_" class="st1" d="M217.9,240.8h-13.3c-0.9,0-1.6-0.7-1.6-1.6v-10.7c0-0.9,0.7-1.6,1.6-1.6h13.3
		c0.9,0,1.6,0.7,1.6,1.6v10.7C219.4,240.1,218.7,240.8,217.9,240.8z"/>
	<path id="XMLID_393_" class="st1" d="M287.2,249.1L287.2,249.1c-2.6,0-4.7-2.1-4.7-4.7v-57.9c0-0.9,0.7-1.6,1.6-1.6h6.2
		c0.9,0,1.6,0.7,1.6,1.6v57.9C291.9,247,289.8,249.1,287.2,249.1z"/>
	<path id="XMLID_392_" class="st1" d="M293.9,240.8h-13.3c-0.9,0-1.6-0.7-1.6-1.6v-10.7c0-0.9,0.7-1.6,1.6-1.6h13.3
		c0.9,0,1.6,0.7,1.6,1.6v10.7C295.4,240.1,294.7,240.8,293.9,240.8z"/>
	<path id="XMLID_391_" class="st3" d="M364.6,303.7c0,0,1.6,58.1,21.9,65.4"/>
	<path id="XMLID_390_" class="st3" d="M386,357.5c-3,0-4.8-2.1-4.8-4.8c0-2.6,1.8-4.8,4.8-4.8V357.5z"/>
	<path id="XMLID_389_" class="st3" d="M134.4,303.7c0,0-1.6,58.1-21.9,65.4"/>
	<path id="XMLID_388_" class="st3" d="M113,357.5c3,0,4.8-2.1,4.8-4.8c0-2.6-1.8-4.8-4.8-4.8V357.5z"/>
</g>
<g id="XMLID_481_">
	<path id="XMLID_492_" class="st1" d="M1354.9,179.2h-254.5l18.4-71.9c0.9-3.6,4.2-6.2,7.9-6.2h201.8c3.7,0,7,2.5,7.9,6.2
		L1354.9,179.2z"/>
	<path id="XMLID_491_" class="st1" d="M1354.9,378.9h-244.3c-5.7,0-10.3-4.6-10.3-10.3V179h254.5V378.9z"/>
	<polygon id="XMLID_490_" class="st1" points="1346,145.7 1109.6,145.7 1115.6,121.5 1340,121.5 	"/>
	<path id="XMLID_489_" class="st1" d="M1241.3,101H1215c-1,0-1.9,0.8-2,1.8l-9.6,77.3c0,0.1,0,0.2,0,0.3l0.2,65.5
		c0,1.5,1.6,2.5,3,1.8l20-10.7c0.6-0.3,1.3-0.3,1.9,0l20.1,11.3c1.3,0.8,3-0.2,3-1.8v-66.3c0-0.1,0-0.1,0-0.2l-8.4-77.1
		C1243.2,101.8,1242.3,101,1241.3,101z"/>
	<circle id="XMLID_488_" class="st1" cx="1352" cy="379.8" r="48.3"/>
	<path id="XMLID_487_" class="st4" d="M1367.2,361.4c0,8.5-14.5,24.3-14.5,24.3s-14.5-15.9-14.5-24.3c0-8.5,6.5-15.3,14.5-15.3
		C1360.7,346,1367.2,352.9,1367.2,361.4z"/>
	<path id="XMLID_486_" class="st5" d="M1341.1,408.2l-9.9,2.6c-0.3,0.1-0.6-0.1-0.6-0.4v-18.6c0-0.2,0.1-0.4,0.3-0.4l9.9-2.6
		c0.3-0.1,0.6,0.1,0.6,0.4v18.6C1341.4,408,1341.3,408.2,1341.1,408.2z"/>
	<path id="XMLID_485_" class="st5" d="M1342,408.2l9.9,2.6c0.3,0.1,0.6-0.1,0.6-0.4v-18.6c0-0.2-0.1-0.4-0.3-0.4l-9.9-2.6
		c-0.3-0.1-0.6,0.1-0.6,0.4v18.6C1341.7,408,1341.8,408.2,1342,408.2z"/>
	<path id="XMLID_484_" class="st5" d="M1363.1,408.2l-9.9,2.6c-0.3,0.1-0.6-0.1-0.6-0.4v-18.6c0-0.2,0.1-0.4,0.3-0.4l9.9-2.6
		c0.3-0.1,0.6,0.1,0.6,0.4v18.6C1363.5,408,1363.3,408.2,1363.1,408.2z"/>
	<path id="XMLID_483_" class="st5" d="M1364.1,408.2l9.9,2.6c0.3,0.1,0.6-0.1,0.6-0.4v-18.6c0-0.2-0.1-0.4-0.3-0.4l-9.9-2.6
		c-0.3-0.1-0.6,0.1-0.6,0.4v18.6C1363.7,408,1363.9,408.2,1364.1,408.2z"/>
	<circle id="XMLID_482_" class="st5" cx="1352.7" cy="359.2" r="5.8"/>
</g>
<g id="XMLID_546_">
	<path id="XMLID_570_" class="st3" d="M1720.9,239.7l-1.6-1.1c-1.1-0.7-1.3-2.2-0.6-3.2l27-38.8c0.7-1.1,2.2-1.3,3.2-0.6l1.6,1.1
		c1.1,0.7,1.3,2.2,0.6,3.2l-27,38.8C1723.4,240.2,1722,240.5,1720.9,239.7z"/>
	<path id="XMLID_569_" class="st3" d="M1778.2,239.7l1.6-1.1c1.1-0.7,1.3-2.2,0.6-3.2l-27-38.8c-0.7-1.1-2.2-1.3-3.2-0.6l-1.6,1.1
		c-1.1,0.7-1.3,2.2-0.6,3.2l27,38.8C1775.7,240.2,1777.1,240.5,1778.2,239.7z"/>
	<path id="XMLID_568_" class="st1" d="M1845.4,214.1h-190.2c-3.9,0-7.1-3.2-7.1-7.1v-96.5c0-3.9,3.2-7.1,7.1-7.1h190.2
		c3.9,0,7.1,3.2,7.1,7.1V207C1852.5,210.9,1849.3,214.1,1845.4,214.1z"/>
	<path id="XMLID_567_" class="st1" d="M1858.7,120.4H1642c-2.7,0-4.9-2.2-4.9-4.9v-11.7c0-2.7,2.2-4.9,4.9-4.9h216.7
		c2.7,0,4.9,2.2,4.9,4.9v11.7C1863.6,118.2,1861.4,120.4,1858.7,120.4z"/>
	<path id="XMLID_566_" class="st1" d="M1828.3,282.7h-156c-1.7,0-3.2-1.4-3.2-3.2v-2.1c0-1.7,1.4-3.2,3.2-3.2h156
		c1.7,0,3.2,1.4,3.2,3.2v2.1C1831.4,281.3,1830,282.7,1828.3,282.7z"/>
	<g id="XMLID_563_">
		<polygon id="XMLID_565_" class="st1" points="1694.8,411.3 1689.5,411.3 1700.7,282.7 1711.5,282.7 		"/>
		<polygon id="XMLID_564_" class="st1" points="1805.8,411.3 1811.1,411.3 1799.8,282.7 1789,282.7 		"/>
	</g>
	<path id="XMLID_562_" class="st6" d="M1925.6,294c0,0,26.5,23.4,2.9,50.2"/>
	<path id="XMLID_561_" class="st1" d="M1921.1,354.9h-69.6c-3.7,0-6.6-3-6.6-6.6v-1.4c0-3.7,3-6.6,6.6-6.6h69.6c3.7,0,6.6,3,6.6,6.6
		v1.4C1927.7,351.9,1924.7,354.9,1921.1,354.9z"/>
	<rect id="XMLID_560_" x="1885.2" y="356" class="st1" width="5.2" height="52.2"/>
	<path id="XMLID_559_" class="st1" d="M1923.5,325.3l-1.4-0.2c-3.7-0.4-6.3-3.7-5.9-7.4l6.4-56.5c0.4-3.7,3.7-6.3,7.4-5.9l1.4,0.2
		c3.7,0.4,6.3,3.7,5.9,7.4l-6.4,56.5C1930.5,323.1,1927.2,325.7,1923.5,325.3z"/>
	<line id="XMLID_558_" class="st1" x1="1859" y1="320" x2="1859" y2="342"/>
	<line id="XMLID_557_" class="st1" x1="1896" y1="320" x2="1896" y2="342"/>
	<path id="XMLID_556_" class="st1" d="M1922.7,414.4h-71.3c-0.4,0-0.7-0.3-0.7-0.7v-4.1c0-0.4,0.3-0.7,0.7-0.7h71.3
		c0.4,0,0.7,0.3,0.7,0.7v4.1C1923.4,414,1923.1,414.4,1922.7,414.4z"/>
	<path id="XMLID_555_" class="st1" d="M1900.4,321.7c0,0-26.4-0.4-30.9-0.1c-4.6,0.3-20.2,3.2-20.2,3.2c-1.8,0.1-3.4-1.1-3.5-2.6
		l-0.2-3.8c-0.1-1.6,1.3-2.9,3.1-3c0,0,14.1-2.8,19.3-3.1c5.3-0.3,31.8,0,31.8,0c1.8-0.1,3.4,1.1,3.5,2.6l0.2,3.8
		C1903.8,322.2,1902.2,321.6,1900.4,321.7z"/>
	<path id="XMLID_554_" class="st6" d="M1576,294c0,0-26.5,23.4-2.9,50.2"/>
	<path id="XMLID_553_" class="st1" d="M1579.5,354.9h69.6c3.7,0,6.6-3,6.6-6.6v-1.4c0-3.7-3-6.6-6.6-6.6h-69.6c-3.7,0-6.6,3-6.6,6.6
		v1.4C1572.8,351.9,1575.8,354.9,1579.5,354.9z"/>
	<rect id="XMLID_552_" x="1610.2" y="356" class="st1" width="5.2" height="52.2"/>
	<path id="XMLID_551_" class="st1" d="M1577.1,325.3l1.4-0.2c3.7-0.4,6.3-3.7,5.9-7.4l-6.4-56.5c-0.4-3.7-3.7-6.3-7.4-5.9l-1.4,0.2
		c-3.7,0.4-6.3,3.7-5.9,7.4l6.4,56.5C1570.1,323.1,1573.4,325.7,1577.1,325.3z"/>
	<line id="XMLID_550_" class="st1" x1="1605" y1="320" x2="1605" y2="342"/>
	<line id="XMLID_549_" class="st1" x1="1644" y1="320" x2="1644" y2="342"/>
	<path id="XMLID_548_" class="st1" d="M1577.8,414.4h71.3c0.4,0,0.7-0.3,0.7-0.7v-4.1c0-0.4-0.3-0.7-0.7-0.7h-71.3
		c-0.4,0-0.7,0.3-0.7,0.7v4.1C1577.1,414,1577.4,414.4,1577.8,414.4z"/>
	<path id="XMLID_547_" class="st1" d="M1600.2,321.7c0,0,26.4-0.4,30.9-0.1c4.6,0.3,20.2,3.2,20.2,3.2c1.8,0.1,3.4-1.1,3.5-2.6
		l0.2-3.8c0.1-1.6-1.3-2.9-3.1-3c0,0-14.1-2.8-19.3-3.1c-5.3-0.3-31.8,0-31.8,0c-1.8-0.1-3.4,1.1-3.5,2.6l-0.2,3.8
		C1596.8,322.2,1598.4,321.6,1600.2,321.7z"/>
</g>
<g id="XMLID_598_">
	<line id="XMLID_618_" class="st6" x1="2413.1" y1="145.3" x2="2353.2" y2="81.4"/>
	<path id="XMLID_617_" class="st1" d="M2408.7,219h-45.2c0,0,1.8-22.6,22.6-22.6C2406.9,196.4,2408.7,219,2408.7,219z"/>
	<path id="XMLID_616_" class="st1" d="M2351.8,116.6l-35.4-28c0,0,15.5-16.6,31.7-3.7C2364.4,97.8,2351.8,116.6,2351.8,116.6z"/>
	<rect id="XMLID_615_" x="2153.1" y="184" class="st1" width="42.6" height="28.7"/>
	<rect id="XMLID_614_" x="2120.2" y="210.6" class="st1" width="106.2" height="9.1"/>
	<line id="XMLID_613_" class="st3" x1="2291" y1="198" x2="2291" y2="179"/>
	<line id="XMLID_612_" class="st3" x1="2296" y1="202" x2="2296" y2="183"/>
	<line id="XMLID_611_" class="st3" x1="2301" y1="200" x2="2301" y2="181"/>
	<path id="XMLID_610_" class="st1" d="M2304.7,219.4h-17.4c-1.6,0-2.9-1.3-2.9-2.9v-19.2c0-1.6,1.3-2.9,2.9-2.9h17.4
		c1.6,0,2.9,1.3,2.9,2.9v19.2C2307.6,218.1,2306.3,219.4,2304.7,219.4z"/>
	<polygon id="XMLID_609_" class="st1" points="2126.8,421.6 2121.6,421.6 2134.5,240.8 2150.6,240.8 	"/>
	<polygon id="XMLID_608_" class="st1" points="2378.5,421.6 2383.6,421.6 2370.8,240.8 2354.6,240.8 	"/>
	<path id="XMLID_607_" class="st1" d="M2402.9,278.8h-304.8c-3.9,0-7.1-3.2-7.1-7.1v-39.1c0-3.9,3.2-7.1,7.1-7.1h304.8
		c3.9,0,7.1,3.2,7.1,7.1v39.1C2410,275.7,2406.8,278.8,2402.9,278.8z"/>
	<path id="XMLID_606_" class="st1" d="M2437.2,231.8h-373.5c-1.4,0-2.5-1.1-2.5-2.5V222c0-1.4,1.1-2.5,2.5-2.5h373.5
		c1.4,0,2.5,1.1,2.5,2.5v7.3C2439.8,230.6,2438.6,231.8,2437.2,231.8z"/>
	<path id="XMLID_605_" class="st1" d="M2241.7,196.4h-135.1c-3.1,0-5.6-2.5-5.6-5.6V100c0-3.1,2.5-5.6,5.6-5.6h135.1
		c3.1,0,5.6,2.5,5.6,5.6v90.8C2247.3,193.9,2244.8,196.4,2241.7,196.4z"/>
	<line id="XMLID_604_" class="st6" x1="2102" y1="178" x2="2248" y2="178"/>
	<circle id="XMLID_603_" class="st6" cx="2173.7" cy="187.4" r="2.1"/>
	<line id="XMLID_602_" class="st6" x1="2389.9" y1="198.7" x2="2389.9" y2="198.7"/>
	<line id="XMLID_601_" class="st6" x1="2386.9" y1="197.7" x2="2411.4" y2="151.2"/>
	<circle id="XMLID_600_" class="st1" cx="2413.1" cy="148.5" r="7.5"/>
	<circle id="XMLID_599_" class="st1" cx="2353.9" cy="81.9" r="3"/>
</g>
<g id="XMLID_633_">
	<path id="XMLID_694_" class="st1" d="M2836.8,394.8h-172.5c-1.7,0-3.1-1.4-3.1-3.1V107.9c0-1.7,1.4-3.1,3.1-3.1h172.5
		c1.7,0,3.1,1.4,3.1,3.1v283.8C2839.9,393.4,2838.5,394.8,2836.8,394.8z"/>
	<path id="XMLID_693_" class="st1" d="M2922.4,395.2h-79.3c-1.5,0-2.7-1.2-2.7-2.7V220.7c0-1.5,1.2-2.7,2.7-2.7h79.3
		c1.5,0,2.7,1.2,2.7,2.7v171.8C2925,394,2923.8,395.2,2922.4,395.2z"/>
	<path id="XMLID_692_" class="st1" d="M2659.8,395.2h-81.2c-0.9,0-1.7-0.8-1.7-1.7V219.7c0-0.9,0.8-1.7,1.7-1.7h81.2
		c0.9,0,1.7,0.8,1.7,1.7v173.7C2661.5,394.4,2660.7,395.2,2659.8,395.2z"/>
	<path id="XMLID_691_" class="st5" d="M2778.6,303.8h-56.6c-1.3,0-2.4,1.1-2.4,2.4v86.2c0,1.3,1.1,2.4,2.4,2.4h56.6
		c1.3,0,2.4-1.1,2.4-2.4v-86.2C2781,304.8,2779.9,303.8,2778.6,303.8z"/>
	<line id="XMLID_690_" class="st7" x1="2536" y1="395" x2="2964" y2="395"/>
	<g id="XMLID_685_">
		<path id="XMLID_689_" class="st5" d="M2702.1,150.6h-23.7c-0.9,0-1.6-0.7-1.6-1.6v-20.5c0-0.9,0.7-1.6,1.6-1.6h23.7
			c0.9,0,1.6,0.7,1.6,1.6V149C2703.7,149.9,2703,150.6,2702.1,150.6z"/>
		<path id="XMLID_688_" class="st5" d="M2742.1,150.6h-23.7c-0.9,0-1.6-0.7-1.6-1.6v-20.5c0-0.9,0.7-1.6,1.6-1.6h23.7
			c0.9,0,1.6,0.7,1.6,1.6V149C2743.7,149.9,2743,150.6,2742.1,150.6z"/>
		<path id="XMLID_687_" class="st5" d="M2782.1,150.6h-23.7c-0.9,0-1.6-0.7-1.6-1.6v-20.5c0-0.9,0.7-1.6,1.6-1.6h23.7
			c0.9,0,1.6,0.7,1.6,1.6V149C2783.7,149.9,2783,150.6,2782.1,150.6z"/>
		<path id="XMLID_686_" class="st5" d="M2822.1,150.6h-23.7c-0.9,0-1.6-0.7-1.6-1.6v-20.5c0-0.9,0.7-1.6,1.6-1.6h23.7
			c0.9,0,1.6,0.7,1.6,1.6V149C2823.7,149.9,2823,150.6,2822.1,150.6z"/>
	</g>
	<g id="XMLID_682_">
		<path id="XMLID_684_" class="st5" d="M2610.6,252.3h-23.7c-0.9,0-1.6-0.7-1.6-1.6v-20.5c0-0.9,0.7-1.6,1.6-1.6h23.7
			c0.9,0,1.6,0.7,1.6,1.6v20.5C2612.1,251.6,2611.4,252.3,2610.6,252.3z"/>
		<path id="XMLID_683_" class="st5" d="M2650.6,252.3h-23.7c-0.9,0-1.6-0.7-1.6-1.6v-20.5c0-0.9,0.7-1.6,1.6-1.6h23.7
			c0.9,0,1.6,0.7,1.6,1.6v20.5C2652.1,251.6,2651.4,252.3,2650.6,252.3z"/>
	</g>
	<g id="XMLID_679_">
		<path id="XMLID_681_" class="st5" d="M2610.6,288.3h-23.7c-0.9,0-1.6-0.7-1.6-1.6v-20.5c0-0.9,0.7-1.6,1.6-1.6h23.7
			c0.9,0,1.6,0.7,1.6,1.6v20.5C2612.1,287.6,2611.4,288.3,2610.6,288.3z"/>
		<path id="XMLID_680_" class="st5" d="M2650.6,288.3h-23.7c-0.9,0-1.6-0.7-1.6-1.6v-20.5c0-0.9,0.7-1.6,1.6-1.6h23.7
			c0.9,0,1.6,0.7,1.6,1.6v20.5C2652.1,287.6,2651.4,288.3,2650.6,288.3z"/>
	</g>
	<g id="XMLID_676_">
		<path id="XMLID_678_" class="st5" d="M2610.6,324.3h-23.7c-0.9,0-1.6-0.7-1.6-1.6v-20.5c0-0.9,0.7-1.6,1.6-1.6h23.7
			c0.9,0,1.6,0.7,1.6,1.6v20.5C2612.1,323.6,2611.4,324.3,2610.6,324.3z"/>
		<path id="XMLID_677_" class="st5" d="M2650.6,324.3h-23.7c-0.9,0-1.6-0.7-1.6-1.6v-20.5c0-0.9,0.7-1.6,1.6-1.6h23.7
			c0.9,0,1.6,0.7,1.6,1.6v20.5C2652.1,323.6,2651.4,324.3,2650.6,324.3z"/>
	</g>
	<g id="XMLID_673_">
		<path id="XMLID_675_" class="st5" d="M2610.6,358.3h-23.7c-0.9,0-1.6-0.7-1.6-1.6v-20.5c0-0.9,0.7-1.6,1.6-1.6h23.7
			c0.9,0,1.6,0.7,1.6,1.6v20.5C2612.1,357.6,2611.4,358.3,2610.6,358.3z"/>
		<path id="XMLID_674_" class="st5" d="M2650.6,358.3h-23.7c-0.9,0-1.6-0.7-1.6-1.6v-20.5c0-0.9,0.7-1.6,1.6-1.6h23.7
			c0.9,0,1.6,0.7,1.6,1.6v20.5C2652.1,357.6,2651.4,358.3,2650.6,358.3z"/>
	</g>
	<g id="XMLID_670_">
		<path id="XMLID_672_" class="st5" d="M2874.9,252.3h-23.7c-0.9,0-1.6-0.7-1.6-1.6v-20.5c0-0.9,0.7-1.6,1.6-1.6h23.7
			c0.9,0,1.6,0.7,1.6,1.6v20.5C2876.5,251.6,2875.8,252.3,2874.9,252.3z"/>
		<path id="XMLID_671_" class="st5" d="M2914.9,252.3h-23.7c-0.9,0-1.6-0.7-1.6-1.6v-20.5c0-0.9,0.7-1.6,1.6-1.6h23.7
			c0.9,0,1.6,0.7,1.6,1.6v20.5C2916.5,251.6,2915.8,252.3,2914.9,252.3z"/>
	</g>
	<g id="XMLID_667_">
		<path id="XMLID_669_" class="st5" d="M2874.9,288.3h-23.7c-0.9,0-1.6-0.7-1.6-1.6v-20.5c0-0.9,0.7-1.6,1.6-1.6h23.7
			c0.9,0,1.6,0.7,1.6,1.6v20.5C2876.5,287.6,2875.8,288.3,2874.9,288.3z"/>
		<path id="XMLID_668_" class="st5" d="M2914.9,288.3h-23.7c-0.9,0-1.6-0.7-1.6-1.6v-20.5c0-0.9,0.7-1.6,1.6-1.6h23.7
			c0.9,0,1.6,0.7,1.6,1.6v20.5C2916.5,287.6,2915.8,288.3,2914.9,288.3z"/>
	</g>
	<path id="XMLID_666_" class="st5" d="M2874.9,324.3h-23.7c-0.9,0-1.6-0.7-1.6-1.6v-20.5c0-0.9,0.7-1.6,1.6-1.6h23.7
		c0.9,0,1.6,0.7,1.6,1.6v20.5C2876.5,323.6,2875.8,324.3,2874.9,324.3z"/>
	<path id="XMLID_665_" class="st5" d="M2914.9,324.3h-23.7c-0.9,0-1.6-0.7-1.6-1.6v-20.5c0-0.9,0.7-1.6,1.6-1.6h23.7
		c0.9,0,1.6,0.7,1.6,1.6v20.5C2916.5,323.6,2915.8,324.3,2914.9,324.3z"/>
	<g id="XMLID_662_">
		<path id="XMLID_664_" class="st5" d="M2874.9,358.3h-23.7c-0.9,0-1.6-0.7-1.6-1.6v-20.5c0-0.9,0.7-1.6,1.6-1.6h23.7
			c0.9,0,1.6,0.7,1.6,1.6v20.5C2876.5,357.6,2875.8,358.3,2874.9,358.3z"/>
		<path id="XMLID_663_" class="st5" d="M2914.9,358.3h-23.7c-0.9,0-1.6-0.7-1.6-1.6v-20.5c0-0.9,0.7-1.6,1.6-1.6h23.7
			c0.9,0,1.6,0.7,1.6,1.6v20.5C2916.5,357.6,2915.8,358.3,2914.9,358.3z"/>
	</g>
	<g id="XMLID_657_">
		<path id="XMLID_661_" class="st5" d="M2702.1,183.6h-23.7c-0.9,0-1.6-0.7-1.6-1.6v-20.5c0-0.9,0.7-1.6,1.6-1.6h23.7
			c0.9,0,1.6,0.7,1.6,1.6V182C2703.7,182.9,2703,183.6,2702.1,183.6z"/>
		<path id="XMLID_660_" class="st5" d="M2742.1,183.6h-23.7c-0.9,0-1.6-0.7-1.6-1.6v-20.5c0-0.9,0.7-1.6,1.6-1.6h23.7
			c0.9,0,1.6,0.7,1.6,1.6V182C2743.7,182.9,2743,183.6,2742.1,183.6z"/>
		<path id="XMLID_659_" class="st5" d="M2782.1,183.6h-23.7c-0.9,0-1.6-0.7-1.6-1.6v-20.5c0-0.9,0.7-1.6,1.6-1.6h23.7
			c0.9,0,1.6,0.7,1.6,1.6V182C2783.7,182.9,2783,183.6,2782.1,183.6z"/>
		<path id="XMLID_658_" class="st5" d="M2822.1,183.6h-23.7c-0.9,0-1.6-0.7-1.6-1.6v-20.5c0-0.9,0.7-1.6,1.6-1.6h23.7
			c0.9,0,1.6,0.7,1.6,1.6V182C2823.7,182.9,2823,183.6,2822.1,183.6z"/>
	</g>
	<g id="XMLID_652_">
		<path id="XMLID_656_" class="st5" d="M2702.1,218.6h-23.7c-0.9,0-1.6-0.7-1.6-1.6v-20.5c0-0.9,0.7-1.6,1.6-1.6h23.7
			c0.9,0,1.6,0.7,1.6,1.6V217C2703.7,217.9,2703,218.6,2702.1,218.6z"/>
		<path id="XMLID_655_" class="st5" d="M2742.1,218.6h-23.7c-0.9,0-1.6-0.7-1.6-1.6v-20.5c0-0.9,0.7-1.6,1.6-1.6h23.7
			c0.9,0,1.6,0.7,1.6,1.6V217C2743.7,217.9,2743,218.6,2742.1,218.6z"/>
		<path id="XMLID_654_" class="st5" d="M2782.1,218.6h-23.7c-0.9,0-1.6-0.7-1.6-1.6v-20.5c0-0.9,0.7-1.6,1.6-1.6h23.7
			c0.9,0,1.6,0.7,1.6,1.6V217C2783.7,217.9,2783,218.6,2782.1,218.6z"/>
		<path id="XMLID_653_" class="st5" d="M2822.1,218.6h-23.7c-0.9,0-1.6-0.7-1.6-1.6v-20.5c0-0.9,0.7-1.6,1.6-1.6h23.7
			c0.9,0,1.6,0.7,1.6,1.6V217C2823.7,217.9,2823,218.6,2822.1,218.6z"/>
	</g>
	<g id="XMLID_647_">
		<path id="XMLID_651_" class="st5" d="M2702.1,253.6h-23.7c-0.9,0-1.6-0.7-1.6-1.6v-20.5c0-0.9,0.7-1.6,1.6-1.6h23.7
			c0.9,0,1.6,0.7,1.6,1.6V252C2703.7,252.9,2703,253.6,2702.1,253.6z"/>
		<path id="XMLID_650_" class="st5" d="M2742.1,253.6h-23.7c-0.9,0-1.6-0.7-1.6-1.6v-20.5c0-0.9,0.7-1.6,1.6-1.6h23.7
			c0.9,0,1.6,0.7,1.6,1.6V252C2743.7,252.9,2743,253.6,2742.1,253.6z"/>
		<path id="XMLID_649_" class="st5" d="M2782.1,253.6h-23.7c-0.9,0-1.6-0.7-1.6-1.6v-20.5c0-0.9,0.7-1.6,1.6-1.6h23.7
			c0.9,0,1.6,0.7,1.6,1.6V252C2783.7,252.9,2783,253.6,2782.1,253.6z"/>
		<path id="XMLID_648_" class="st5" d="M2822.1,253.6h-23.7c-0.9,0-1.6-0.7-1.6-1.6v-20.5c0-0.9,0.7-1.6,1.6-1.6h23.7
			c0.9,0,1.6,0.7,1.6,1.6V252C2823.7,252.9,2823,253.6,2822.1,253.6z"/>
	</g>
	<g id="XMLID_642_">
		<path id="XMLID_646_" class="st5" d="M2702.1,287.6h-23.7c-0.9,0-1.6-0.7-1.6-1.6v-20.5c0-0.9,0.7-1.6,1.6-1.6h23.7
			c0.9,0,1.6,0.7,1.6,1.6V286C2703.7,286.9,2703,287.6,2702.1,287.6z"/>
		<path id="XMLID_645_" class="st5" d="M2742.1,287.6h-23.7c-0.9,0-1.6-0.7-1.6-1.6v-20.5c0-0.9,0.7-1.6,1.6-1.6h23.7
			c0.9,0,1.6,0.7,1.6,1.6V286C2743.7,286.9,2743,287.6,2742.1,287.6z"/>
		<path id="XMLID_644_" class="st5" d="M2782.1,287.6h-23.7c-0.9,0-1.6-0.7-1.6-1.6v-20.5c0-0.9,0.7-1.6,1.6-1.6h23.7
			c0.9,0,1.6,0.7,1.6,1.6V286C2783.7,286.9,2783,287.6,2782.1,287.6z"/>
		<path id="XMLID_643_" class="st5" d="M2822.1,287.6h-23.7c-0.9,0-1.6-0.7-1.6-1.6v-20.5c0-0.9,0.7-1.6,1.6-1.6h23.7
			c0.9,0,1.6,0.7,1.6,1.6V286C2823.7,286.9,2823,287.6,2822.1,287.6z"/>
	</g>
	<g id="XMLID_639_">
		<path id="XMLID_641_" class="st5" d="M2702.1,324.6h-23.7c-0.9,0-1.6-0.7-1.6-1.6v-20.5c0-0.9,0.7-1.6,1.6-1.6h23.7
			c0.9,0,1.6,0.7,1.6,1.6V323C2703.7,323.9,2703,324.6,2702.1,324.6z"/>
		<path id="XMLID_640_" class="st5" d="M2822.1,324.6h-23.7c-0.9,0-1.6-0.7-1.6-1.6v-20.5c0-0.9,0.7-1.6,1.6-1.6h23.7
			c0.9,0,1.6,0.7,1.6,1.6V323C2823.7,323.9,2823,324.6,2822.1,324.6z"/>
	</g>
	<g id="XMLID_636_">
		<path id="XMLID_638_" class="st5" d="M2702.1,358.6h-23.7c-0.9,0-1.6-0.7-1.6-1.6v-20.5c0-0.9,0.7-1.6,1.6-1.6h23.7
			c0.9,0,1.6,0.7,1.6,1.6V357C2703.7,357.9,2703,358.6,2702.1,358.6z"/>
		<path id="XMLID_637_" class="st5" d="M2822.1,358.6h-23.7c-0.9,0-1.6-0.7-1.6-1.6v-20.5c0-0.9,0.7-1.6,1.6-1.6h23.7
			c0.9,0,1.6,0.7,1.6,1.6V357C2823.7,357.9,2823,358.6,2822.1,358.6z"/>
	</g>
	<path id="XMLID_635_" class="st5" d="M2784.4,306.5h-68.4c-0.8,0-1.5-0.7-1.5-1.5v-2.1c0-0.8,0.7-1.5,1.5-1.5h68.4
		c0.8,0,1.5,0.7,1.5,1.5v2.1C2786,305.8,2785.3,306.5,2784.4,306.5z"/>
	<line id="XMLID_634_" class="st3" x1="2719" y1="324" x2="2781" y2="324"/>
</g>
</svg>
